{
	"tslint.enable": true,
	"extends": "tslint:recommended",
	"jsRules": {
		"quotemark": [
			true,
			"single",
			"double",
			"avoid-escape"
		]
	},
	"rules": {
		"quotemark": [
			true,
			"single",
			"double",
			"avoid-escape"
		],
		"max-classes-per-file": false,
		"adjacent-overload-signatures": true,
		"ban-comma-operator": true,
		"class-name": true,
		"curly": true,
		"no-trailing-whitespace": false,
		"no-console": [
			false
		],
		"object-literal-sort-keys": false,
		"ordered-imports": false,
		"max-line-length": false,
		"no-shadowed-variable": false,
		"arrow-parens": false,
		"member-access": false,
		"member-ordering": [
			true,
			{
				"order": [
					"public-static-field",
					"protected-static-field",
					"private-static-field",
					"public-instance-field",
					"protected-instance-field",
					"private-instance-field",
					"public-static-method",
					"public-constructor",
					"protected-static-method",
					"private-static-method",
					"public-instance-method",
					"protected-instance-method",
					"private-instance-method"
				]
			}
		],
		"no-arg": true,
		"no-construct": true,
		"no-eval": true,
		"no-var-keyword": true,
		"no-var-requires": true,
		"no-unused-expression": true,
		"prefer-for-of": true,
		"triple-equals": true,
		"variable-name": [
			true,
			"ban-keywords",
			"check-format",
			"allow-leading-underscore"
		],
		"indent": [
			true,
			"tabs",
			4
		],
		"trailing-comma": false,
		"interface-name": false
	}
}